Configuring hspec-core-2.4.8...
Preprocessing library for hspec-core-2.4.8..
Building library for hspec-core-2.4.8..
[ 1 of 23] Compiling Control.Concurrent.Async ( vendor/Control/Concurrent/Async.hs, .stack-work/dist/i386-linux/Cabal-2.0.1.0/build/Control/Concurrent/Async.o )
[ 2 of 23] Compiling Data.Algorithm.Diff ( vendor/Data/Algorithm/Diff.hs, .stack-work/dist/i386-linux/Cabal-2.0.1.0/build/Data/Algorithm/Diff.o )
[ 3 of 23] Compiling Paths_hspec_core ( .stack-work/dist/i386-linux/Cabal-2.0.1.0/build/autogen/Paths_hspec_core.hs, .stack-work/dist/i386-linux/Cabal-2.0.1.0/build/Paths_hspec_core.o )
[ 4 of 23] Compiling Test.Hspec.Core.Compat ( src/Test/Hspec/Core/Compat.hs, .stack-work/dist/i386-linux/Cabal-2.0.1.0/build/Test/Hspec/Core/Compat.o )
[ 5 of 23] Compiling Test.Hspec.Core.Formatters.Diff ( src/Test/Hspec/Core/Formatters/Diff.hs, .stack-work/dist/i386-linux/Cabal-2.0.1.0/build/Test/Hspec/Core/Formatters/Diff.o )
[ 6 of 23] Compiling Test.Hspec.Core.Formatters.Free ( src/Test/Hspec/Core/Formatters/Free.hs, .stack-work/dist/i386-linux/Cabal-2.0.1.0/build/Test/Hspec/Core/Formatters/Free.o )
[ 7 of 23] Compiling Test.Hspec.Core.Timer ( src/Test/Hspec/Core/Timer.hs, .stack-work/dist/i386-linux/Cabal-2.0.1.0/build/Test/Hspec/Core/Timer.o )
[ 8 of 23] Compiling Test.Hspec.Core.Util ( src/Test/Hspec/Core/Util.hs, .stack-work/dist/i386-linux/Cabal-2.0.1.0/build/Test/Hspec/Core/Util.o )
[ 9 of 23] Compiling Test.Hspec.Core.QuickCheckUtil ( src/Test/Hspec/Core/QuickCheckUtil.hs, .stack-work/dist/i386-linux/Cabal-2.0.1.0/build/Test/Hspec/Core/QuickCheckUtil.o )
[10 of 23] Compiling Test.Hspec.Core.Example ( src/Test/Hspec/Core/Example.hs, .stack-work/dist/i386-linux/Cabal-2.0.1.0/build/Test/Hspec/Core/Example.o )
[11 of 23] Compiling Test.Hspec.Core.Tree ( src/Test/Hspec/Core/Tree.hs, .stack-work/dist/i386-linux/Cabal-2.0.1.0/build/Test/Hspec/Core/Tree.o )
[12 of 23] Compiling Test.Hspec.Core.Spec.Monad ( src/Test/Hspec/Core/Spec/Monad.hs, .stack-work/dist/i386-linux/Cabal-2.0.1.0/build/Test/Hspec/Core/Spec/Monad.o )
[13 of 23] Compiling Test.Hspec.Core.Hooks ( src/Test/Hspec/Core/Hooks.hs, .stack-work/dist/i386-linux/Cabal-2.0.1.0/build/Test/Hspec/Core/Hooks.o )
[14 of 23] Compiling Test.Hspec.Core.Spec ( src/Test/Hspec/Core/Spec.hs, .stack-work/dist/i386-linux/Cabal-2.0.1.0/build/Test/Hspec/Core/Spec.o )
[15 of 23] Compiling Test.Hspec.Core.QuickCheck ( src/Test/Hspec/Core/QuickCheck.hs, .stack-work/dist/i386-linux/Cabal-2.0.1.0/build/Test/Hspec/Core/QuickCheck.o )
[16 of 23] Compiling Test.Hspec.Core.Formatters.Monad ( src/Test/Hspec/Core/Formatters/Monad.hs, .stack-work/dist/i386-linux/Cabal-2.0.1.0/build/Test/Hspec/Core/Formatters/Monad.o )
[17 of 23] Compiling Test.Hspec.Core.Formatters ( src/Test/Hspec/Core/Formatters.hs, .stack-work/dist/i386-linux/Cabal-2.0.1.0/build/Test/Hspec/Core/Formatters.o )
[18 of 23] Compiling Test.Hspec.Core.Options ( src/Test/Hspec/Core/Options.hs, .stack-work/dist/i386-linux/Cabal-2.0.1.0/build/Test/Hspec/Core/Options.o )
[19 of 23] Compiling Test.Hspec.Core.FailureReport ( src/Test/Hspec/Core/FailureReport.hs, .stack-work/dist/i386-linux/Cabal-2.0.1.0/build/Test/Hspec/Core/FailureReport.o )
[20 of 23] Compiling Test.Hspec.Core.Formatters.Internal ( src/Test/Hspec/Core/Formatters/Internal.hs, .stack-work/dist/i386-linux/Cabal-2.0.1.0/build/Test/Hspec/Core/Formatters/Internal.o )
[21 of 23] Compiling Test.Hspec.Core.Config ( src/Test/Hspec/Core/Config.hs, .stack-work/dist/i386-linux/Cabal-2.0.1.0/build/Test/Hspec/Core/Config.o )
[22 of 23] Compiling Test.Hspec.Core.Runner.Eval ( src/Test/Hspec/Core/Runner/Eval.hs, .stack-work/dist/i386-linux/Cabal-2.0.1.0/build/Test/Hspec/Core/Runner/Eval.o )
[23 of 23] Compiling Test.Hspec.Core.Runner ( src/Test/Hspec/Core/Runner.hs, .stack-work/dist/i386-linux/Cabal-2.0.1.0/build/Test/Hspec/Core/Runner.o )
Installing library in /home/p1tr4k/.stack/snapshots/i386-linux/lts-11.8/8.2.2/lib/i386-linux-ghc-8.2.2/hspec-core-2.4.8-Kw7W7etJuCX7XcYqqsmiuv
Registering library for hspec-core-2.4.8..
